Clustering with K-Means and UMAP • healthyR
…
The data that we have generated is going to look for clustering
amongst the service_lines (the user) and the
payer_grouping (item) columns.

Lets now create the user item table.

User Item Tibble

uit_tbl <- kmeans_user_item_tbl(data_tbl, service_line, payer_grouping, record)

uit_tbl
#> # A tibble: 23 x 12
#>    service_line     `Blue Cross` Commercial Compensation `Exchange Plans`    HMO
#>    <chr>                   <dbl>      <dbl>        <dbl>            <dbl>  <dbl>
#>  1 Alcohol Abuse          0.0941    0.0321      0.000525          0.0116  0.0788
#>  2 Bariatric Surge~       0.317     0.0583      0                 0.0518  0.168 
#>  3 Carotid Endarte~       0.0845    0.0282      0                 0       0.0141
#>  4 Cellulitis             0.110     0.0339      0.0118            0.00847 0.0805
#>  5 Chest Pain             0.144     0.0391      0.00290           0.00543 0.112 
#>  6 CHF                    0.0295    0.00958     0.000518          0.00414 0.0205
#>  7 COPD                   0.0493    0.0228      0.000228          0.00548 0.0342
#>  8 CVA                    0.0647    0.0246      0.00107           0.0107  0.0524
#>  9 GI Hemorrhage          0.0542    0.0175      0.00125           0.00834 0.0480
#> 10 Joint Replaceme~       0.139     0.0179      0.0336            0.00673 0.0516
#> # ... with 13 more rows, and 6 more variables: Medicaid <dbl>,
#> #   `Medicaid HMO` <dbl>, `Medicare A` <dbl>, `Medicare HMO` <dbl>,
#> #   `No Fault` <dbl>, `Self Pay` <dbl>
…
umap_kmeans_cluster_results_tbl

Since we have the list object we can now inspect the
kmeans_obj, first thing we will do is use the
kmeans_tidy_tbl function to inspect things.

km_obj <- ump_lst$kmeans_obj
kmeans_tidy_tbl(.kmeans_obj = km_obj, .data = uit_tbl, .tidy_type = "glance")
#> # A tibble: 1 x 4
#>   totss tot.withinss betweenss  iter
#>   <dbl>        <dbl>     <dbl> <int>
#> 1  1.41        0.372      1.04     2

kmeans_tidy_tbl(km_obj, uit_tbl, "augment")
#> # A tibble: 23 x 2
#>    service_line                  cluster
#>    <chr>                         <fct>  
#>  1 Alcohol Abuse                 3      
#>  2 Bariatric Surgery For Obesity 3      
#>  3 Carotid Endarterectomy        1      
#>  4 Cellulitis                    2      
#>  5 Chest Pain                    2      
#>  6 CHF                           1      
#>  7 COPD                          1      
#>  8 CVA                           1      
#>  9 GI Hemorrhage                 1      
#> 10 Joint Replacement             1      
#> # ... with 13 more rows
…
