K-Means tidy Functions — kmeans_tidy_tbl • healthyR
…
 uit_tbl <- kmeans_user_item_tbl(
   .data           = data_tbl
   , .row_input    = service_line
   , .col_input    =  payer_grouping
   , .record_input = record
 )

 km_obj  <- kmeans_obj(uit_tbl)

 kmeans_tidy_tbl(
   .kmeans_obj  = km_obj
   , .data      = uit_tbl
   , .tidy_type = "augment"
 )
#> # A tibble: 23 × 2
#>    service_line                  cluster
#>    <chr>                         <fct>  
#>  1 Alcohol Abuse                 5      
#>  2 Bariatric Surgery For Obesity 1      
#>  3 CHF                           3      
#>  4 COPD                          3      
#>  5 CVA                           3      
#>  6 Carotid Endarterectomy        3      
#>  7 Cellulitis                    4      
#>  8 Chest Pain                    4      
#>  9 GI Hemorrhage                 3      
#> 10 Joint Replacement             3      
#> # … with 13 more rows
#> # ℹ Use `print(n = ...)` to see more rows
…
