Make LOS and Readmit Index Summary Tibble — los_ra_index_summary_tbl • healthyR
…
los_ra_index_summary_tbl(
  .data = data_tbl
  , .max_los       = 15
  , .alos_col      = alos
  , .elos_col      = elos
  , .readmit_rate  = readmit_rate
  , .readmit_bench = readmit_rate_bench
  )

#> # A tibble: 142 x 4
#>    los_group los_index rar_index los_ra_var
#>        <dbl>     <dbl>     <dbl>      <dbl>
#>  1      1.14    0.0815     0.562      1.36 
#>  2      1.16    0.322      3.33       3.01 
#>  3      1.21    0.379      0.5        1.12 
#>  4      1.25    0.0941     2.75       2.66 
#>  5      1.28    0.154      2.25       2.10 
#>  6      1.34    0.237      2          1.76 
#>  7      1.37    0.416      0.867      0.718
#>  8      1.47    0.285      1.3        1.01 
#>  9      1.51    0.719      0.111      1.17 
#> 10      1.82    0.765      4.75       3.98 
#> # ... with 132 more rows
…
