Tibble to named list — named_item_list • healthyR
…
#>     total_adjustment_amount : double
#>     payer_grouping          : character
#>     total_payment_amount    : double
#>     ip_op_flag              : character
#>     service_line            : character
#>     length_of_stay          : double
#>     expected_length_of_stay : logical
#>     length_of_stay_threshold: logical
#>     los_outlier_flag        : double
#>     readmit_flag            : double
#>     readmit_expectation     : logical
#>   >
#> >[29]>
#> $`Alcohol Abuse`
#> # A tibble: 1,904 x 17
#>    mrn     visit_id   visit_start_date_ti~ visit_end_date_time total_charge_amo~
#>    <chr>   <chr>      <dttm>               <dttm>                          <dbl>
#>  1 666813~ 1027422530 2011-09-18 18:45:00  2011-09-21 15:24:00            20650.
#>  2 857120~ 1715006714 2011-09-24 14:23:00  2011-09-27 22:54:00            19632.
#>  3 450869~ 1463793508 2011-09-25 17:22:00  2011-09-30 18:48:00            27028.
#>  4 531364~ 1087046253 2011-10-01 08:58:00  2011-10-03 11:10:00            12214.
#>  5 799083~ 1933551353 2011-10-02 00:04:00  2011-10-06 13:51:00            30124.
#>  6 293234~ 1651882235 2011-10-06 15:08:00  2011-10-07 16:00:00             8571.
#>  7 978097~ 1375044667 2011-10-06 17:23:00  2011-10-08 14:19:00            13139.
#>  8 887653~ 1040286568 2011-10-09 00:36:00  2011-10-09 15:29:00            37944.
#>  9 133030~ 1814203481 2011-09-26 20:00:00  2011-10-10 11:59:00           110695.
#> 10 506460~ 1177441455 2011-10-11 01:00:00  2011-10-13 10:16:00            18791.
#> # ... with 1,894 more rows, and 12 more variables: total_amount_due <dbl>,
#> #   total_adjustment_amount <dbl>, payer_grouping <chr>,
#> #   total_payment_amount <dbl>, ip_op_flag <chr>, service_line <chr>,
#> #   length_of_stay <dbl>, expected_length_of_stay <lgl>,
#> #   length_of_stay_threshold <lgl>, los_outlier_flag <dbl>, readmit_flag <dbl>,
#> #   readmit_expectation <lgl>
#> 
#> $`Bariatric Surgery For Obesity`
#> # A tibble: 309 x 17
#>    mrn     visit_id   visit_start_date_ti~ visit_end_date_time total_charge_amo~
#>    <chr>   <chr>      <dttm>               <dttm>                          <dbl>
#>  1 331970~ 1959572939 2012-12-03 13:35:00  2012-12-05 14:42:00            42533.
#>  2 857476~ 1935901324 2012-12-03 07:30:00  2012-12-06 13:48:00            47450.
#>  3 895596~ 1250962562 2012-12-03 08:39:00  2012-12-06 16:18:00            50382.
#>  4 312282~ 1482137310 2013-01-16 06:32:00  2013-01-18 16:07:00            43665.
#>  5 154454~ 1953192076 2013-01-16 09:18:00  2013-01-20 18:33:00            52763.
#>  6 226308~ 1950977321 2013-02-19 10:28:00  2013-02-21 15:25:00            36038.
#>  7 373987~ 1518672773 2013-02-26 06:53:00  2013-03-01 12:38:00            56381.
#>  8 142686~ 1903948241 2013-04-09 06:45:00  2013-04-11 18:12:00            43263.
#>  9 783383~ 1196711516 2013-04-23 07:16:00  2013-04-26 16:41:00            52300.
#> 10 801522~ 1595499961 2013-05-21 06:15:00  2013-05-24 15:59:00            44746.
#> # ... with 299 more rows, and 12 more variables: total_amount_due <dbl>,
#> #   total_adjustment_amount <dbl>, payer_grouping <chr>,
#> #   total_payment_amount <dbl>, ip_op_flag <chr>, service_line <chr>,
#> #   length_of_stay <dbl>, expected_length_of_stay <lgl>,
#> #   length_of_stay_threshold <lgl>, los_outlier_flag <dbl>, readmit_flag <dbl>,
#> #   readmit_expectation <lgl>
…
#> 14 372536~ 3461965066 2012-04-23 05:00:00  2012-04-24 00:00:00            36768.
#> 15 852887~ 3078841126 2012-06-12 05:00:00  2012-06-13 00:00:00            39139.
#> 16 732399~ 3350427612 2012-07-09 05:00:00  2012-07-10 00:00:00            35642.
#> 17 525778~ 3074630610 2012-08-20 05:00:00  2012-08-21 00:00:00            37140.
#> 18 622863~ 3659346039 2012-08-27 05:00:00  2012-08-28 00:00:00            35030.
#> 19 391644~ 3146567155 2012-12-18 05:00:00  2012-12-19 00:00:00            36899.
#> # ... with 12 more variables: total_amount_due <dbl>,
#> #   total_adjustment_amount <dbl>, payer_grouping <chr>,
#> #   total_payment_amount <dbl>, ip_op_flag <chr>, service_line <chr>,
#> #   length_of_stay <dbl>, expected_length_of_stay <lgl>,
#> #   length_of_stay_threshold <lgl>, los_outlier_flag <dbl>, readmit_flag <dbl>,
#> #   readmit_expectation <lgl>
#> 
#> $`Cardiac Catheterization`
#> # A tibble: 2,339 x 17
#>    mrn     visit_id   visit_start_date_ti~ visit_end_date_time total_charge_amo~
#>    <chr>   <chr>      <dttm>               <dttm>                          <dbl>
#>  1 665831~ 3578143882 2011-01-04 05:00:00  2011-01-04 00:00:00             20852
#>  2 100221~ 3911589004 2011-01-04 05:00:00  2011-01-04 00:00:00             18334
#>  3 287248~ 3226717751 2011-01-05 05:00:00  2011-01-05 00:00:00             19353
#>  4 540766~ 3773686746 2011-01-05 05:00:00  2011-01-05 00:00:00             18334
#>  5 891112~ 3082518298 2011-01-13 05:00:00  2011-01-11 00:00:00              1377
#>  6 918772~ 3385295784 2011-01-13 05:00:00  2011-01-13 00:00:00             18405
#>  7 891112~ 3040689259 2011-01-13 05:00:00  2011-01-13 00:00:00             18587
#>  8 757733~ 3380647809 2011-01-14 05:00:00  2011-01-14 00:00:00             20069
#>  9 223853~ 3740963587 2011-01-17 05:00:00  2011-01-17 00:00:00             18428
#> 10 914344~ 3628134734 2011-01-17 05:00:00  2011-01-17 00:00:00             20056
#> # ... with 2,329 more rows, and 12 more variables: total_amount_due <dbl>,
#> #   total_adjustment_amount <dbl>, payer_grouping <chr>,
#> #   total_payment_amount <dbl>, ip_op_flag <chr>, service_line <chr>,
#> #   length_of_stay <dbl>, expected_length_of_stay <lgl>,
#> #   length_of_stay_threshold <lgl>, los_outlier_flag <dbl>, readmit_flag <dbl>,
#> #   readmit_expectation <lgl>
#> 
#> $`Carotid Endarterectomy`
#> # A tibble: 72 x 17
#>    mrn     visit_id   visit_start_date_ti~ visit_end_date_time total_charge_amo~
#>    <chr>   <chr>      <dttm>               <dttm>                          <dbl>
#>  1 918863~ 1012723677 2011-12-02 11:51:00  2011-12-04 15:32:00            29553.
#>  2 848790~ 1998441927 2012-02-02 06:37:00  2012-02-05 19:38:00            35181.
#>  3 356850~ 1235700498 2012-03-16 16:26:00  2012-03-23 11:22:00            87273.
#>  4 848790~ 1412023246 2012-03-30 09:31:00  2012-04-02 17:57:00            36213.
#>  5 768022~ 1501987656 2012-04-03 09:43:00  2012-04-05 13:11:00            27293.
#>  6 215714~ 1253613669 2012-03-29 21:26:00  2012-04-05 14:53:00            82206.
#>  7 889587~ 1446390621 2012-03-27 19:35:00  2012-04-05 16:35:00            89350.
#>  8 253047~ 1257726852 2012-05-29 08:52:00  2012-06-04 11:53:00            57470.
#>  9 859971~ 1406791576 2012-05-29 06:40:00  2012-06-04 12:40:00            52616.
#> 10 190400~ 1247816653 2012-05-31 06:57:00  2012-06-04 14:30:00            37105.
#> # ... with 62 more rows, and 12 more variables: total_amount_due <dbl>,
#> #   total_adjustment_amount <dbl>, payer_grouping <chr>,
#> #   total_payment_amount <dbl>, ip_op_flag <chr>, service_line <chr>,
#> #   length_of_stay <dbl>, expected_length_of_stay <lgl>,
#> #   length_of_stay_threshold <lgl>, los_outlier_flag <dbl>, readmit_flag <dbl>,
#> #   readmit_expectation <lgl>
#> 
#> $`Cataract Removal`
#> # A tibble: 4,930 x 17
#>    mrn     visit_id   visit_start_date_ti~ visit_end_date_time total_charge_amo~
#>    <chr>   <chr>      <dttm>               <dttm>                          <dbl>
#>  1 244324~ 3904707515 2010-01-05 05:00:00  2010-01-05 00:00:00            31283.
#>  2 427678~ 3950850951 2010-01-05 05:00:00  2010-01-05 00:00:00            12833.
#>  3 274364~ 3391956987 2010-01-05 05:00:00  2010-01-05 00:00:00            11770.
#>  4 167952~ 3399694359 2010-01-05 05:00:00  2010-01-05 00:00:00            12729.
#>  5 263188~ 3554661434 2010-01-05 05:00:00  2010-01-05 00:00:00            12833.
#>  6 612809~ 3763722295 2010-01-06 05:00:00  2010-01-06 00:00:00            15748.
#>  7 808332~ 3967666823 2010-01-06 05:00:00  2010-01-06 00:00:00            14165.
#>  8 118243~ 3033075545 2010-01-06 05:00:00  2010-01-06 00:00:00            13065.
#>  9 875045~ 3162148392 2010-01-06 05:00:00  2010-01-06 00:00:00            12735.
#> 10 870773~ 3940813073 2010-01-07 05:00:00  2010-01-07 00:00:00            11514.
#> # ... with 4,920 more rows, and 12 more variables: total_amount_due <dbl>,
#> #   total_adjustment_amount <dbl>, payer_grouping <chr>,
#> #   total_payment_amount <dbl>, ip_op_flag <chr>, service_line <chr>,
#> #   length_of_stay <dbl>, expected_length_of_stay <lgl>,
#> #   length_of_stay_threshold <lgl>, los_outlier_flag <dbl>, readmit_flag <dbl>,
#> #   readmit_expectation <lgl>
#> 
#> $Cellulitis
#> # A tibble: 3,311 x 17
#>    mrn     visit_id   visit_start_date_ti~ visit_end_date_time total_charge_amo~
#>    <chr>   <chr>      <dttm>               <dttm>                          <dbl>
#>  1 919378~ 1963079769 2011-09-21 16:35:00  2011-09-23 13:42:00            20322.
#>  2 144154~ 1523695801 2011-09-23 13:59:00  2011-09-23 18:00:00             6860.
#>  3 301158~ 1278133739 2011-09-21 05:31:00  2011-09-24 10:50:00            28990.
#>  4 111903~ 1462795542 2011-09-22 16:32:00  2011-09-25 16:47:00            17947.
#>  5 201226~ 1114115670 2011-09-25 23:58:00  2011-09-26 13:30:00             8604.
#>  6 660235~ 1101427029 2011-09-25 02:04:00  2011-09-27 14:18:00            26726.
#>  7 369039~ 1842522717 2011-09-25 16:14:00  2011-09-27 18:10:00            13143.
#>  8 946759~ 1694578914 2011-09-28 19:23:00  2011-09-29 10:40:00            12203 
#>  9 643138~ 1204713735 2011-09-19 21:06:00  2011-09-30 16:54:00            95473.
#> 10 819807~ 1108154757 2011-09-30 22:52:00  2011-10-01 12:28:00             8901.
#> # ... with 3,301 more rows, and 12 more variables: total_amount_due <dbl>,
#> #   total_adjustment_amount <dbl>, payer_grouping <chr>,
#> #   total_payment_amount <dbl>, ip_op_flag <chr>, service_line <chr>,
#> #   length_of_stay <dbl>, expected_length_of_stay <lgl>,
#> #   length_of_stay_threshold <lgl>, los_outlier_flag <dbl>, readmit_flag <dbl>,
#> #   readmit_expectation <lgl>
#> 
#> $`Chest Pain`
#> # A tibble: 2,766 x 17
#>    mrn     visit_id   visit_start_date_ti~ visit_end_date_time total_charge_amo~
#>    <chr>   <chr>      <dttm>               <dttm>                          <dbl>
#>  1 620489~ 1900262835 2011-09-19 16:53:00  2011-09-20 19:20:00            10426.
#>  2 248251~ 1518935954 2011-09-19 21:51:00  2011-09-21 10:55:00            19261.
#>  3 988597~ 1774049061 2011-09-19 18:47:00  2011-09-22 12:50:00            27736.
#>  4 606539~ 1933930289 2011-09-21 23:51:00  2011-09-22 18:03:00            12116.
#>  5 551032~ 1113333682 2011-09-22 04:39:00  2011-09-23 14:54:00            18740.
#>  6 954314~ 1167648999 2011-09-22 20:11:00  2011-09-24 16:30:00            17625.
#>  7 876956~ 1365338259 2011-09-25 21:52:00  2011-09-26 01:47:00             8509.
#>  8 362040~ 1460612280 2011-09-24 20:00:00  2011-09-26 21:47:00            31526.
#>  9 604380~ 1812202582 2011-09-27 22:31:00  2011-09-28 11:10:00            11644.
#> 10 844785~ 1030571006 2011-09-28 16:29:00  2011-09-28 19:28:00             7463.
#> # ... with 2,756 more rows, and 12 more variables: total_amount_due <dbl>,
#> #   total_adjustment_amount <dbl>, payer_grouping <chr>,
#> #   total_payment_amount <dbl>, ip_op_flag <chr>, service_line <chr>,
#> #   length_of_stay <dbl>, expected_length_of_stay <lgl>,
#> #   length_of_stay_threshold <lgl>, los_outlier_flag <dbl>, readmit_flag <dbl>,
#> #   readmit_expectation <lgl>
#> 
#> $CHF
#> # A tibble: 3,871 x 17
#>    mrn     visit_id   visit_start_date_ti~ visit_end_date_time total_charge_amo~
#>    <chr>   <chr>      <dttm>               <dttm>                          <dbl>
#>  1 514586~ 1759626703 2011-09-19 09:17:00  2011-09-22 12:32:00            24021.
#>  2 665956~ 1901836385 2011-09-19 07:06:00  2011-09-22 18:58:00            33724.
#>  3 214450~ 1913857300 2011-09-22 00:21:00  2011-09-27 16:49:00            47369.
#>  4 337355~ 1710022273 2011-09-15 12:48:00  2011-09-27 19:52:00            76611.
#>  5 675425~ 1377329759 2011-09-17 13:49:00  2011-09-28 13:45:00            81523.
#>  6 694920~ 1811099461 2011-09-24 20:33:00  2011-09-29 11:59:00            37112.
#>  7 935590~ 1609237874 2011-09-22 04:23:00  2011-10-03 14:21:00            84470.
#>  8 147237~ 1713302225 2011-09-15 11:50:00  2011-10-04 19:34:00           158923.
#>  9 498423~ 1052618979 2011-09-29 10:40:00  2011-10-05 14:20:00            50061.
#> 10 986541~ 1022864465 2011-10-01 01:47:00  2011-10-05 18:50:00            42312.
#> # ... with 3,861 more rows, and 12 more variables: total_amount_due <dbl>,
#> #   total_adjustment_amount <dbl>, payer_grouping <chr>,
#> #   total_payment_amount <dbl>, ip_op_flag <chr>, service_line <chr>,
#> #   length_of_stay <dbl>, expected_length_of_stay <lgl>,
#> #   length_of_stay_threshold <lgl>, los_outlier_flag <dbl>, readmit_flag <dbl>,
#> #   readmit_expectation <lgl>
#> 
#> $`Colonoscopy/Endoscopy`
#> # A tibble: 11,486 x 17
#>    mrn     visit_id   visit_start_date_ti~ visit_end_date_time total_charge_amo~
#>    <chr>   <chr>      <dttm>               <dttm>                          <dbl>
#>  1 558973~ 3869688808 2010-01-04 05:00:00  2010-01-04 00:00:00             8788.
#>  2 134636~ 3990577665 2010-01-05 05:00:00  2010-01-05 00:00:00             7607.
#>  3 800924~ 3361584351 2010-01-06 05:00:00  2010-01-06 00:00:00             9567.
#>  4 538979~ 3961488017 2010-01-06 05:00:00  2010-01-06 00:00:00             8671.
#>  5 517910~ 3022697248 2010-01-07 05:00:00  2010-01-07 00:00:00             7966.
#>  6 945633~ 3247268825 2010-01-08 05:00:00  2010-01-08 00:00:00             8695.
#>  7 973218~ 3978227791 2010-01-08 05:00:00  2010-01-08 00:00:00             7277.
#>  8 103413~ 3542481347 2010-01-08 05:00:00  2010-01-08 00:00:00             8783.
#>  9 407274~ 3471312498 2010-01-08 05:00:00  2010-01-08 00:00:00             8988.
#> 10 966319~ 3784146120 2010-01-10 20:54:00  2010-01-10 00:00:00             7656.
#> # ... with 11,476 more rows, and 12 more variables: total_amount_due <dbl>,
#> #   total_adjustment_amount <dbl>, payer_grouping <chr>,
#> #   total_payment_amount <dbl>, ip_op_flag <chr>, service_line <chr>,
#> #   length_of_stay <dbl>, expected_length_of_stay <lgl>,
#> #   length_of_stay_threshold <lgl>, los_outlier_flag <dbl>, readmit_flag <dbl>,
#> #   readmit_expectation <lgl>
#> 
#> $COPD
#> # A tibble: 4,398 x 17
#>    mrn     visit_id   visit_start_date_ti~ visit_end_date_time total_charge_amo~
#>    <chr>   <chr>      <dttm>               <dttm>                          <dbl>
#>  1 532224~ 1698106031 2011-09-23 00:18:00  2011-09-25 14:18:00            21843.
#>  2 545158~ 1461588446 2011-09-18 17:22:00  2011-09-28 17:20:00            98014.
#>  3 914749~ 1437392048 2011-09-19 09:01:00  2011-09-30 14:44:00            96463.
#>  4 383703~ 1452507046 2011-09-25 18:44:00  2011-09-30 20:42:00            31050.
#>  5 307121~ 1117831890 2011-09-26 19:26:00  2011-10-01 09:46:00            33841.
#>  6 111848~ 1308449808 2011-09-30 17:41:00  2011-10-01 16:32:00            13971.
#>  7 881900~ 1670417269 2011-09-27 22:58:00  2011-10-01 17:03:00            44981.
#>  8 338404~ 1957228650 2011-09-26 08:08:00  2011-10-02 15:53:00            44635.
#>  9 209600~ 1168285530 2011-09-28 11:09:00  2011-10-03 15:53:00            36926.
#> 10 956446~ 1711510978 2011-09-24 23:59:00  2011-10-03 18:10:00            69779.
#> # ... with 4,388 more rows, and 12 more variables: total_amount_due <dbl>,
#> #   total_adjustment_amount <dbl>, payer_grouping <chr>,
#> #   total_payment_amount <dbl>, ip_op_flag <chr>, service_line <chr>,
#> #   length_of_stay <dbl>, expected_length_of_stay <lgl>,
#> #   length_of_stay_threshold <lgl>, los_outlier_flag <dbl>, readmit_flag <dbl>,
#> #   readmit_expectation <lgl>
#> 
#> $CVA
#> # A tibble: 1,876 x 17
#>    mrn     visit_id   visit_start_date_ti~ visit_end_date_time total_charge_amo~
#>    <chr>   <chr>      <dttm>               <dttm>                          <dbl>
#>  1 412381~ 1543704405 2011-09-19 15:31:00  2011-09-27 13:11:00           103948.
#>  2 805140~ 1330628548 2011-09-21 14:52:00  2011-09-29 17:38:00            94170.
#>  3 123074~ 1747094197 2011-09-24 16:34:00  2011-09-30 17:21:00            66481.
#>  4 209035~ 1777797971 2011-09-26 12:19:00  2011-10-04 15:38:00            79281.
#>  5 549388~ 1173347043 2011-09-30 17:47:00  2011-10-05 16:50:00            49108.
#>  6 938860~ 1877891341 2011-09-19 17:47:00  2011-10-05 17:25:00           105698.
#>  7 427044~ 1654264242 2011-09-28 22:00:00  2011-10-06 17:08:00            65041.
#>  8 406535~ 1576434827 2011-10-05 15:31:00  2011-10-11 14:26:00            81910.
#>  9 262603~ 1818390150 2011-09-27 13:43:00  2011-10-13 14:14:00            86323.
#> 10 286465~ 1984495021 2011-10-12 10:10:00  2011-10-14 15:15:00            82165.
#> # ... with 1,866 more rows, and 12 more variables: total_amount_due <dbl>,
#> #   total_adjustment_amount <dbl>, payer_grouping <chr>,
#> #   total_payment_amount <dbl>, ip_op_flag <chr>, service_line <chr>,
#> #   length_of_stay <dbl>, expected_length_of_stay <lgl>,
#> #   length_of_stay_threshold <lgl>, los_outlier_flag <dbl>, readmit_flag <dbl>,
#> #   readmit_expectation <lgl>
#> 
#> $`General Outpatient`
#> # A tibble: 50,526 x 17
#>    mrn     visit_id   visit_start_date_ti~ visit_end_date_time total_charge_amo~
#>    <chr>   <chr>      <dttm>               <dttm>                          <dbl>
#>  1 860696~ 3519249247 2010-01-04 05:00:00  2010-01-04 00:00:00            25984.
#>  2 608565~ 3602225015 2010-01-04 05:00:00  2010-01-04 00:00:00            22774.
#>  3 806731~ 3125290892 2010-01-04 05:00:00  2010-01-04 00:00:00            10690.
#>  4 997667~ 3372388995 2010-01-04 05:00:00  2010-01-04 00:00:00             7325.
#>  5 239792~ 3139267083 2010-01-04 05:00:00  2010-01-04 00:00:00             9119.
#>  6 566409~ 3346223511 2010-01-04 05:00:00  2010-01-04 00:00:00            10628 
#>  7 433955~ 3323331752 2010-01-04 05:00:00  2010-01-04 00:00:00             8677.
#>  8 547367~ 3159812613 2010-01-05 05:00:00  2010-01-05 00:00:00             9604.
#>  9 711439~ 3070269820 2010-01-05 05:00:00  2010-01-05 00:00:00             8839.
#> 10 273775~ 3185100321 2010-01-05 05:00:00  2010-01-05 00:00:00            10185.
#> # ... with 50,516 more rows, and 12 more variables: total_amount_due <dbl>,
#> #   total_adjustment_amount <dbl>, payer_grouping <chr>,
#> #   total_payment_amount <dbl>, ip_op_flag <chr>, service_line <chr>,
#> #   length_of_stay <dbl>, expected_length_of_stay <lgl>,
#> #   length_of_stay_threshold <lgl>, los_outlier_flag <dbl>, readmit_flag <dbl>,
#> #   readmit_expectation <lgl>
…
