Time Series - Census and LOS by Day — ts_census_los_daily_tbl • healthyR
…
df <- healthyR_data

df_tbl <- df %>%
  filter(ip_op_flag == "I") %>%
  select(visit_start_date_time, visit_end_date_time) %>%
  timetk::filter_by_time(.date_var = visit_start_date_time, .start_date = "2020")

ts_census_los_daily_tbl(
   .data              = df_tbl
   , .keep_nulls_only = FALSE
   , .start_date_col  = visit_start_date_time
   , .end_date_col    = visit_end_date_time
)
#> # A tibble: 45,572 x 5
#>    date       visit_start_date_time visit_end_date_time   los census
#>    <date>     <date>                <date>              <int>  <dbl>
#>  1 2020-01-01 2020-01-01            2020-01-02              1      1
#>  2 2020-01-01 2020-01-01            2020-01-02              1      1
#>  3 2020-01-01 2020-01-01            2020-01-02              1      1
#>  4 2020-01-01 2020-01-01            2020-01-03              2      1
#>  5 2020-01-01 2020-01-01            2020-01-03              2      1
#>  6 2020-01-01 2020-01-01            2020-01-03              2      1
#>  7 2020-01-01 2020-01-01            2020-01-04              3      1
#>  8 2020-01-01 2020-01-01            2020-01-04              3      1
#>  9 2020-01-01 2020-01-01            2020-01-04              3      1
#> 10 2020-01-01 2020-01-01            2020-01-05              4      1
#> # ... with 45,562 more rows
…
