UMAP Projection — umap_list • healthyR
…
#> [14,] -1.57960684  0.21351746
#> [15,]  0.07514446  0.57518891
#> [16,] -0.79473717  0.35539225
#> [17,]  1.41217868  0.20038059
#> [18,] -0.87235720 -0.62273332
#> [19,] -1.12270386  0.55439070
#> [20,]  0.89454477  0.56136778
#> [21,]  0.92169182  0.11029461
#> [22,] -1.39727528 -1.20793316
#> [23,]  1.70101528 -0.13128158
#> attr(,"scaled:center")
#> [1] -3.380066  5.532106
#> 
#> $umap_results_tbl
#> # A tibble: 23 x 3
#>         x       y service_line                 
#>     <dbl>   <dbl> <chr>                        
#>  1 -1.20  -1.48   Alcohol Abuse                
#>  2 -1.86  -0.927  Bariatric Surgery For Obesity
#>  3  2.07   0.433  CHF                          
#>  4  0.508  0.884  COPD                         
#>  5  1.40   0.916  CVA                          
#>  6  2.07   0.0704 Carotid Endarterectomy       
#>  7 -1.58   0.543  Cellulitis                   
#>  8 -1.29  -0.0791 Chest Pain                   
#>  9  1.65   0.569  GI Hemorrhage                
#> 10  0.518  0.0699 Joint Replacement            
#> # ... with 13 more rows
…
#> 
#> Clustering vector:
#>  [1] 3 3 2 2 2 2 1 1 2 2 3 2 3 1 2 1 2 1 1 2 2 3 2
#> 
#> Within cluster sum of squares by cluster:
#> [1] 0.08456928 0.09625399 0.19152559
#>  (between_SS / total_SS =  73.6 %)
#> 
#> Available components:
#> 
#> [1] "cluster"      "centers"      "totss"        "withinss"     "tot.withinss"
#> [6] "betweenss"    "size"         "iter"         "ifault"      
#> 
#> $kmeans_cluster_tbl
#> # A tibble: 23 x 2
#>    service_line                  .cluster
#>    <chr>                         <fct>   
#>  1 Alcohol Abuse                 3       
#>  2 Bariatric Surgery For Obesity 3       
#>  3 CHF                           2       
#>  4 COPD                          2       
#>  5 CVA                           2       
#>  6 Carotid Endarterectomy        2       
#>  7 Cellulitis                    1       
#>  8 Chest Pain                    1       
#>  9 GI Hemorrhage                 2       
#> 10 Joint Replacement             2       
#> # ... with 13 more rows
#> 
#> $umap_kmeans_cluster_results_tbl
#> # A tibble: 23 x 4
#>         x       y service_line                  .cluster
#>     <dbl>   <dbl> <chr>                         <fct>   
#>  1 -1.20  -1.48   Alcohol Abuse                 3       
#>  2 -1.86  -0.927  Bariatric Surgery For Obesity 3       
#>  3  2.07   0.433  CHF                           2       
#>  4  0.508  0.884  COPD                          2       
#>  5  1.40   0.916  CVA                           2       
#>  6  2.07   0.0704 Carotid Endarterectomy        2       
#>  7 -1.58   0.543  Cellulitis                    1       
#>  8 -1.29  -0.0791 Chest Pain                    1       
#>  9  1.65   0.569  GI Hemorrhage                 2       
#> 10  0.518  0.0699 Joint Replacement             2       
#> # ... with 13 more rows
…
